{
      "TrnReference": "SomeReference_0002",
      "ValueDate": "2021-03-04",
      "BranchCode": "00000003",
      "BranchName": "Synthesis",


      "drBIC": "SBZAZAJJ",
      "drAccountNumber": 98765432,
      "drAccountHolder": "Pliffy Jiff",
      "drBankAccType": "LOCAL_ACC",
      "drResidenceStatus": "Resident",
      "drAccountStatus": "Individual",
      "drAmount": 4000,
      "drCurrency": "ZAR",
      "Field72": "",
      "MonetaryAmount": [
            {
                  "DomesticValue": 4000,
                  "ForeignValue": 200,
                  "Category": "414",
                  "CategoryCode": "414",
                  "RulingsSection":"GIFT Rulings?",
                  "LocationCountry": "US"
            }
      ],
      "dr": {
            "StreetAddress": {
                  "AddressLine1": "AECI Place   Woodlands Drive",
                  "AddressLine2": "Woodmead",
                  "Suburb": "Sandton",
                  "City": "WITKOPPEN",
                  "PostalCode": "2191",
                  "Province": "GAUTENG"
            },
            "PostalAddress": {
                  "AddressLine1": "Private Bag  X21",
                  "AddressLine2": "Gallo Manor",
                  "Suburb": "BRYANSTON",
                  "City": "GAUTENG",
                  "PostalCode": "2052",
                  "Province": "GAUTENG"
            },
            "ContactDetails": {
                  "ContactName": "TREVOR STARKE",
                  "ContactSurname": "STARKE",
                  "Email": "",
                  "Fax": "118068728235",
                  "Telephone": "0118068700"
            },
            "Name": "James",
            "Surname": "Eckhardt",
            "AccountIdentifier": "CASH",
            "AccountName": "",
            "AccountNumber": "005972NAD3602000",
            "TaxNumber": "4350103539",
            "VATNumber": "4350103539",
            "ForeignIDNumber": "",
            "ForeignIDCountry": "",
            "Gender": "M",
            "DateOfBirth": "1980-08-04",
            "IDNumber": "8008045153082",
            "PassportNumber": "",
            "PassportCountry": "",
            "CustomsClientNumber": null
      },
      "crBIC": "CITIUSJJ",
      "crAccountNumber": 12345678,
      "crAccountHolder": "JIPPY PIFF",
      "crBankAccType": null,
      "crResidenceStatus": null,
      "crAccountStatus": "Entity",
      "crAmount": 200,
      "crCurrency": "USD",
      "cr": {
            "EntityName": "DOLL HOUSE MUSEUM",
            "AccountIdentifier": "NON RESIDENT OTHER",
            "AccountNumber": "888888888",
            "Address": {
                  "AddressLine1": "2004 STATE ST",
                  "Suburb": "PENBROOK",
                  "City": "HARRISBURG",
                  "PostalCode": "2194",
                  "Province": "PENNSYLVANIA",
                  "Country": "US"
            }
      }
}