{
      "Scenario_Description": "[DR: NRes Ind Lcl_Acc Lcl_Curr SBSA; CR: ? ? ? FCY CITIUS]  => CustomerPayment",


      "drResidenceStatus":null,
      "drBankAccType":"NOSTRO",
      "drCurrency":"ZAR",
      "drBIC":"SBZAZA",
      "field72":null,
      "drOptionalParams":{"drAccountHolderStatus": null},

      "crResidenceStatus":null,
      "crBankAccType":null,
      "crCurrency":"USD",
      "crBIC":"CITIUSXX",
      "crOptionalParams":{"crAccountHolderStatus":null}

}