{
      "drResidenceStatus":"Resident",
      "drBankAccType":"LOCAL_ACC",
      "drCurrency":"ZAR",
      "drBIC":"SBZAZAJ0XXX",
      "field72":null,
      "drOptionalParams":{"drAccountHolderStatus": "Individual"},

      "crResidenceStatus":null,
      "crBankAccType":null,
      "crCurrency":"USD",
      "crBIC":"CITIUSXX",
      "crOptionalParams":{"crAccountHolderStatus":null}
}